{
    "name" : "Schemas Changed Signal",
    "description" : "Change Signal for Schemas",
    "shell-version" : [
        "3.36"
    ],
    "uuid" : "schemas-changed-signal@example.com",
    "version" : 1.0
}

