{
    "name" : "Mainloop Specific Time",
    "description" : "Create a loop that can be called on specific hour:minute:seconds",
    "shell-version" : [
        "3.36"
    ],
    "uuid" : "mainloop-specific-time@example.com",
    "version" : 1.0
}

